…
    ## Warning in rbind(names(probs), probs_f): number of columns of result is not
    ## a multiple of vector length (arg 1)

    ## Warning: 57 parsing failures.
    ## row # A tibble: 5 x 5 col     row col               expected actual file              expected   <int> <chr>             <chr>    <chr>  <chr>             actual 1     1 normalized_losses a double ?      'imports-85.data' file 2     2 normalized_losses a double ?      'imports-85.data' row 3     3 normalized_losses a double ?      'imports-85.data' col 4     6 normalized_losses a double ?      'imports-85.data' expected 5     8 normalized_losses a double ?      'imports-85.data'
    ## ... ................. ... ........................................................... ........ ........................................................... ...... ........................................................... .... ........................................................... ... ........................................................... ... ........................................................... ........ ...........................................................
    ## See problems(...) for more details.

``` r
csv_file
```

    ## # A tibble: 205 x 26
    ##    symboling normalized_losses make      fuel_type aspiration num_of_doors
    ##        <dbl>             <dbl> <chr>     <chr>     <chr>      <chr>       
    ##  1      3.00                NA alfa-rom gas       std        two         
    ##  2      3.00                NA alfa-rom gas       std        two         
    ##  3      1.00                NA alfa-rom gas       std        two         
    ##  4      2.00               164 audi      gas       std        four        
    ##  5      2.00               164 audi      gas       std        four        
    ##  6      2.00                NA audi      gas       std        two         
    ##  7      1.00               158 audi      gas       std        four        
    ##  8      1.00                NA audi      gas       std        four        
    ##  9      1.00               158 audi      gas       turbo      four        
    ## 10      0                   NA audi      gas       turbo      two         
    ## # ... with 195 more rows, and 20 more variables: body_style <chr>,
    ## #   drive_wheels <chr>, engine_location <chr>, wheel_base <dbl>, length
    ## #   <dbl>, width <dbl>, height <dbl>, curb_weight <int>, engine_type
    ## #   <chr>, `number of cylinders` <chr>, engine_size <int>, fuel_system
    ## #   <chr>, bore <dbl>, stroke <dbl>, compression_ratio <dbl>, horsepower
    ## #   <int>, peak_rpm <int>, city_mpg <int>, highway_mpg <int>, price <int>
…
