…
``` r
# create new tibble using dplyr functions
tibble1 <- merge(shots_data %>%
  group_by(shot_distance) %>%
  summarise(total_shot1 = length(shot_made_flag)),
  shots_data %>%
  group_by(shot_distance) %>%
    summarise(made_shot1 = sum(shot_made_flag == 'made shot'))) %>%
      group_by(shot_distance) %>%
  summarise(made_shot_prop = made_shot1 / total_shot1) 
tibble1
```

    ## # A tibble: 56 x 2
    ##    shot_distance made_shot_prop
    ##            <int>          <dbl>
    ##  1             0          0.841
    ##  2             1          0.668
    ##  3             2          0.534
    ##  4             3          0.373
    ##  5             4          0.411
    ##  6             5          0.286
    ##  7             6          0.396
    ##  8             7          0.395
    ##  9             8          0.463
    ## 10             9          0.321
    ## # ... with 46 more rows
…
  filter(name== 'Klay Thompson') %>%
  group_by(minute) %>%
  summarise (number_of_shots = length(name == name)) %>%
  mutate(name = 'Klay Thompson')
shots5 <-shots_data %>%
  select(minute,name) %>%
  filter(name== 'Stephen Curry') %>%
  group_by(minute) %>%
  summarise (number_of_shots = length(name == name)) %>%
  mutate(name = 'Stephen Curry')
shots_overall <- rbind(shots1,shots2,shots3,shots4,shots5)
shots_overall
```

    ## # A tibble: 233 x 3
    ##    minute number_of_shots name          
    ##     <int>           <int> <chr>         
    ##  1      4               1 Andre Iguodala
    ##  2      5               1 Andre Iguodala
    ##  3      6               1 Andre Iguodala
    ##  4      7               7 Andre Iguodala
    ##  5      8              10 Andre Iguodala
    ##  6      9              11 Andre Iguodala
    ##  7     10              17 Andre Iguodala
    ##  8     11              10 Andre Iguodala
    ##  9     12              23 Andre Iguodala
    ## 10     13              10 Andre Iguodala
    ## # ... with 223 more rows
…
